Electronics_Archive_Old/Firmware/TEC_Firmware/Direct_to_TEC.csv

Record Length,2500,Points,-520.000001416E-6,1.1999999,,Record Length,2500,Points,-520.000001416E-6,1.1799999,,Record Length,2500,Points,-520.000001416E-6,-79.999998212E-3,
Sample Interval,3.99999999E-6,s,-516.000029165E-6,1.0200000,,Sample Interval,3.99999999E-6,s,-516.000029165E-6,1.3000000,,Sample Interval,3.99999999E-6,s,-516.000029165E-6,79.999998212E-3,
Trigger Point,130.0000007,Samples,-511.999998707E-6,939.999997616E-3,,Trigger Point,130.0000007,Samples,-511.999998707E-6,1.1600000,,Trigger Point,130.0000007,Samples,-511.999998707E-6,199.99998808E-3,
,,,-508.000026457E-6,1.1000000,,,,,-508.000026457E-6,819.999992847E-3,,,,,-508.000026457E-6,-59.999998659E-3,
,,,-503.999995999E-6,1.2200000,,,,,-503.999995999E-6,1.0400000,,,,,-503.999995999E-6,-99.999994040E-3,
,,,-500.000023749E-6,1.1200000,,,,,-500.000023749E-6,1.2600000,,,,,-500.000023749E-6,-59.999998659E-3,
Source,CH1,,-495.999993291E-6,1.0200000,,Source,CH2,,-495.999993291E-6,1.3199999,,Source,CH3,,-495.999993291E-6,119.9999973E-3,
Vertical Units,Volts,,-492.000021040E-6,939.999997616E-3,,Vertical Units,Volts,,-492.000021040E-6,1.0599999,,Vertical Units,Volts,,-492.000021040E-6,119.9999973E-3,
Vertical Scale,499.999988824E-3,,-487.999990582E-6,1.1799999,,Vertical Scale,499.999988824E-3,,-487.999990582E-6,859.999954700E-3,,Vertical Scale,499.999988824E-3,,-487.999990582E-6,-119.9999973E-3,
Vertical Offset,0,,-483.999989228E-6,1.1999999,,Vertical Offset,0,,-483.999989228E-6,1.0799999,,Vertical Offset,0,,-483.999989228E-6,-159.99999642E-3,
Horizontal Units,s,,-479.999987874E-6,1.1000000,,Horizontal Units,s,,-479.999987874E-6,1.3600000,,Horizontal Units,s,,-479.999987874E-6,39.99999911E-3,
Horizontal Scale,1.000000E-3,,-476.000015624E-6,979.999959469E-3,,Horizontal Scale,1.000000E-3,,-476.000015624E-6,1.2800000,,Horizontal Scale,1.000000E-3,,-476.000015624E-6,159.99999642E-3,
Pt Fmt,Y,,-472.000014270E-6,959.999978542E-3,,Pt Fmt,Y,,-472.000014270E-6,1.0200000,,Pt Fmt,Y,,-472.000014270E-6,179.99999225E-3,
Yzero,-3.00000000,,-468.000012916E-6,1.1999999,,Yzero,-3.00000000,,-468.000012916E-6,979.999959469E-3,,Yzero,-3.00000000,,-468.000012916E-6,-79.999998212E-3,
Probe Atten,10.0000000,,-464.000011561E-6,1.1799999,,Probe Atten,10.0000000,,-464.000011561E-6,1.1400000,,Probe Atten,10.0000000,,-464.000011561E-6,-79.999998212E-3,
,,,-460.000010207E-6,1.0799999,,,,,-460.000010207E-6,1.3600000,,,,,-460.000010207E-6,59.999998659E-3,
Note,2016-11-01T14:09:12 Direct to TEC,,-456.000008853E-6,939.999997616E-3,,Note,2016-11-01T14:09:12 Direct to TEC,,-456.000008853E-6,1.1600000,,Note,2016-11-01T14:09:12 Direct to TEC,,-456.000008853E-6,199.99998808E-3,
,,,-452.000007499E-6,1.000000,,,,,-452.000007499E-6,959.999978542E-3,,,,,-452.000007499E-6,-19.9999996E-3,
,,,-448.000006145E-6,1.1799999,,,,,-448.000006145E-6,959.999978542E-3,,,,,-448.000006145E-6,-119.9999973E-3,
,,,-444.000004791E-6,1.1999999,,,,,-444.000004791E-6,1.1999999,,,,,-444.000004791E-6,-39.99999911E-3,
,,,-440.000003437E-6,1.000000,,,,,-440.000003437E-6,1.2800000,,,,,-440.000003437E-6,39.99999911E-3,
,,,-436.000002082E-6,939.999997616E-3,,,,,-436.000002082E-6,1.1000000,,,,,-436.000002082E-6,239.99999464E-3,
,,,-432.000000728E-6,1.1200000,,,,,-432.000000728E-6,819.999992847E-3,,,,,-432.000000728E-6,-119.9999973E-3,
,,,-427.999999374E-6,1.2200000,,,,,-427.999999374E-6,1.0599999,,,,,-427.999999374E-6,-79.999998212E-3,
,,,-423.999998020E-6,1.1000000,,,,,-423.999998020E-6,1.3000000,,,,,-423.999998020E-6,-39.99999911E-3,
,,,-419.999996666E-6,1.000000,,,,,-419.999996666E-6,1.3199999,,,,,-419.999996666E-6,179.99999225E-3,
,,,-415.999995312E-6,939.999997616E-3,,,,,-415.999995312E-6,1.0400000,,,,,-415.999995312E-6,140.0000006E-3,
,,,-411.999993958E-6,1.1799999,,,,,-411.999993958E-6,899.999976158E-3,,,,,-411.999993958E-6,-119.9999973E-3,
,,,-407.999992603E-6,1.2200000,,,,,-407.999992603E-6,1.1600000,,,,,-407.999992603E-6,-119.9999973E-3,
,,,-403.999991249E-6,1.0799999,,,,,-403.999991249E-6,1.3399999,,,,,-403.999991249E-6,19.9999996E-3,
,,,-399.99998990E-6,1.000000,,,,,-399.99998990E-6,1.2600000,,,,,-399.99998990E-6,179.99999225E-3,
,,,-395.99998854E-6,959.999978542E-3,,,,,-395.99998854E-6,959.999978542E-3,,,,,-395.99998854E-6,179.99999225E-3,
,,,-392.00001629E-6,1.2200000,,,,,-392.00001629E-6,1.000000,,,,,-392.00001629E-6,-99.999994040E-3,
,,,-388.00001494E-6,1.1600000,,,,,-388.00001494E-6,1.1600000,,,,,-388.00001494E-6,-79.999998212E-3,
,,,-384.00001358E-6,1.0799999,,,,,-384.00001358E-6,1.3600000,,,,,-384.00001358E-6,79.999998212E-3,
,,,-380.00001223E-6,899.999976158E-3,,,,,-380.00001223E-6,1.1400000,,,,,-380.00001223E-6,179.99999225E-3,
,,,-376.00001087E-6,1.1400000,,,,,-376.00001087E-6,859.999954700E-3,,,,,-376.00001087E-6,-19.9999996E-3,
,,,-372.00000952E-6,1.1799999,,,,,-372.00000952E-6,959.999978542E-3,,,,,-372.00000952E-6,-159.99999642E-3,
,,,-368.00000817E-6,1.1400000,,,,,-368.00000817E-6,1.3000000,,,,,-368.00000817E-6,-19.9999996E-3,
,,,-364.00000681E-6,1.000000,,,,,-364.00000681E-6,1.2600000,,,,,-364.00000681E-6,79.999998212E-3,
,,,-360.00000546E-6,959.999978542E-3,,,,,-360.00000546E-6,1.1000000,,,,,-360.00000546E-6,239.99999464E-3,
,,,-356.00000410E-6,1.1200000,,,,,-356.00000410E-6,819.999992847E-3,,,,,-356.00000410E-6,-179.99999225E-3,
,,,-352.00000275E-6,1.2200000,,,,,-352.00000275E-6,1.1400000,,,,,-352.00000275E-6,-119.9999973E-3,
,,,-348.00000140E-6,1.0799999,,,,,-348.00000140E-6,1.3199999,,,,,-348.00000140E-6,-39.99999911E-3,
,,,-344.00000004E-6,979.999959469E-3,,,,,-344.00000004E-6,1.2600000,,,,,-344.00000004E-6,179.99999225E-3,
,,,-339.99999869E-6,959.999978542E-3,,,,,-339.99999869E-6,1.0799999,,,,,-339.99999869E-6,140.0000006E-3,
,,,-335.99999733E-6,1.1999999,,,,,-335.99999733E-6,959.999978542E-3,,,,,-335.99999733E-6,-59.999998659E-3,
,,,-331.99999598E-6,1.2200000,,,,,-331.99999598E-6,1.1999999,,,,,-331.99999598E-6,-119.9999973E-3,
,,,-327.99999462E-6,1.0599999,,,,,-327.99999462E-6,1.3199999,,,,,-327.99999462E-6,59.999998659E-3,
,,,-323.99999327E-6,979.999959469E-3,,,,,-323.99999327E-6,1.2400000,,,,,-323.99999327E-6,179.99999225E-3,
,,,-319.99999192E-6,959.999978542E-3,,,,,-319.99999192E-6,899.999976158E-3,,,,,-319.99999192E-6,-39.99999911E-3,
,,,-315.99999056E-6,1.2200000,,,,,-315.99999056E-6,1.0400000,,,,,-315.99999056E-6,-119.9999973E-3,
,,,-311.99998921E-6,1.1400000,,,,,-311.99998921E-6,1.1799999,,,,,-311.99998921E-6,-59.999998659E-3,
,,,-307.99998785E-6,1.0200000,,,,,-307.99998785E-6,1.3399999,,,,,-307.99998785E-6,159.99999642E-3,
,,,-304.00001560E-6,899.999976158E-3,,,,,-304.00001560E-6,1.0400000,,,,,-304.00001560E-6,199.99998808E-3,
,,,-300.00001425E-6,1.1600000,,,,,-300.00001425E-6,839.999973774E-3,,,,,-300.00001425E-6,-79.999998212E-3,
,,,-296.00001290E-6,1.1600000,,,,,-296.00001290E-6,1.0599999,,,,,-296.00001290E-6,-159.99999642E-3,
,,,-292.00001154E-6,1.1200000,,,,,-292.00001154E-6,1.3199999,,,,,-292.00001154E-6,19.9999996E-3,
,,,-288.00001019E-6,979.999959469E-3,,,,,-288.00001019E-6,1.2600000,,,,,-288.00001019E-6,119.9999973E-3,
,,,-284.00000883E-6,939.999997616E-3,,,,,-284.00000883E-6,1.0599999,,,,,-284.00000883E-6,140.0000006E-3,
,,,-280.00000748E-6,1.1799999,,,,,-280.00000748E-6,879.999995232E-3,,,,,-280.00000748E-6,-140.0000006E-3,
,,,-276.00000612E-6,1.1999999,,,,,-276.00000612E-6,1.1400000,,,,,-276.00000612E-6,-99.999994040E-3,
,,,-272.00000477E-6,1.0799999,,,,,-272.00000477E-6,1.3399999,,,,,-272.00000477E-6,19.9999996E-3,
,,,-268.00000342E-6,979.999959469E-3,,,,,-268.00000342E-6,1.2400000,,,,,-268.00000342E-6,199.99998808E-3,
,,,-264.00000206E-6,1.000000,,,,,-264.00000206E-6,1.000000,,,,,-264.00000206E-6,159.99999642E-3,
,,,-260.00000071E-6,1.1799999,,,,,-260.00000071E-6,979.999959469E-3,,,,,-260.00000071E-6,-119.9999973E-3,
,,,-255.99999935E-6,1.1999999,,,,,-255.99999935E-6,1.2400000,,,,,-255.99999935E-6,-79.999998212E-3,
,,,-251.99999800E-6,1.0200000,,,,,-251.99999800E-6,1.2800000,,,,,-251.99999800E-6,99.999994040E-3,
,,,-247.99999665E-6,959.999978542E-3,,,,,-247.99999665E-6,1.1799999,,,,,-247.99999665E-6,219.99999881E-3,
,,,-243.99999529E-6,1.1000000,,,,,-243.99999529E-6,819.999992847E-3,,,,,-243.99999529E-6,-59.999998659E-3,
,,,-240.00000849E-6,1.2200000,,,,,-240.00000849E-6,1.0599999,,,,,-240.00000849E-6,-119.9999973E-3,
,,,-236.00000713E-6,1.1200000,,,,,-236.00000713E-6,1.2400000,,,,,-236.00000713E-6,-79.999998212E-3,
,,,-232.00000578E-6,1.000000,,,,,-232.00000578E-6,1.3199999,,,,,-232.00000578E-6,119.9999973E-3,
,,,-228.00000443E-6,919.999957085E-3,,,,,-228.00000443E-6,1.0400000,,,,,-228.00000443E-6,219.99999881E-3,
,,,-224.00000307E-6,1.1799999,,,,,-224.00000307E-6,859.999954700E-3,,,,,-224.00000307E-6,-119.9999973E-3,
,,,-220.00000172E-6,1.1799999,,,,,-220.00000172E-6,1.0799999,,,,,-220.00000172E-6,-140.0000006E-3,
,,,-216.00000036E-6,1.0799999,,,,,-216.00000036E-6,1.3199999,,,,,-216.00000036E-6,39.99999911E-3,
,,,-211.99999901E-6,939.999997616E-3,,,,,-211.99999901E-6,1.1999999,,,,,-211.99999901E-6,140.0000006E-3,
,,,-207.99999766E-6,959.999978542E-3,,,,,-207.99999766E-6,1.0400000,,,,,-207.99999766E-6,199.99998808E-3,
,,,-203.99999630E-6,1.1999999,,,,,-203.99999630E-6,959.999978542E-3,,,,,-203.99999630E-6,-159.99999642E-3,
,,,-200.00000950E-6,1.1999999,,,,,-200.00000950E-6,1.1999999,,,,,-200.00000950E-6,-59.999998659E-3,
,,,-196.00000815E-6,1.0799999,,,,,-196.00000815E-6,1.3600000,,,,,-196.00000815E-6,39.99999911E-3,
,,,-192.00000679E-6,939.999997616E-3,,,,,-192.00000679E-6,1.1400000,,,,,-192.00000679E-6,219.99999881E-3,
,,,-188.00000544E-6,1.000000,,,,,-188.00000544E-6,939.999997616E-3,,,,,-188.00000544E-6,-79.999998212E-3,
,,,-184.00000408E-6,1.1999999,,,,,-184.00000408E-6,1.000000,,,,,-184.00000408E-6,-140.0000006E-3,
,,,-180.00000273E-6,1.1799999,,,,,-180.00000273E-6,1.3199999,,,,,-180.00000273E-6,-39.99999911E-3,
,,,-176.00000137E-6,979.999959469E-3,,,,,-176.00000137E-6,1.2800000,,,,,-176.00000137E-6,159.99999642E-3,
,,,-172.00000002E-6,959.999978542E-3,,,,,-172.00000002E-6,1.1200000,,,,,-172.00000002E-6,219.99999881E-3,
,,,-167.99999867E-6,1.1000000,,,,,-167.99999867E-6,779.999971390E-3,,,,,-167.99999867E-6,-119.9999973E-3,
,,,-163.99999731E-6,1.2200000,,,,,-163.99999731E-6,1.1000000,,,,,-163.99999731E-6,-99.999994040E-3,
,,,-159.99999596E-6,1.0799999,,,,,-159.99999596E-6,1.2800000,,,,,-159.99999596E-6,0.0,
,,,-156.00000916E-6,1.0200000,,,,,-156.00000916E-6,1.2600000,,,,,-156.00000916E-6,119.9999973E-3,
,,,-152.00000780E-6,919.999957085E-3,,,,,-152.00000780E-6,1.0599999,,,,,-152.00000780E-6,199.99998808E-3,
,,,-148.0000064E-6,1.1799999,,,,,-148.0000064E-6,899.999976158E-3,,,,,-148.0000064E-6,-59.999998659E-3,
,,,-144.0000051E-6,1.1799999,,,,,-144.0000051E-6,1.0799999,,,,,-144.0000051E-6,-119.9999973E-3,
,,,-140.0000037E-6,1.0799999,,,,,-140.0000037E-6,1.3600000,,,,,-140.0000037E-6,59.999998659E-3,
,,,-136.0000024E-6,939.999997616E-3,,,,,-136.0000024E-6,1.1799999,,,,,-136.0000024E-6,140.0000006E-3,
,,,-132.0000010E-6,979.999959469E-3,,,,,-132.0000010E-6,959.999978542E-3,,,,,-132.0000010E-6,140.0000006E-3,
,,,-127.9999997E-6,1.1999999,,,,,-127.9999997E-6,1.0200000,,,,,-127.9999997E-6,-159.99999642E-3,
,,,-123.9999983E-6,1.1400000,,,,,-123.9999983E-6,1.2600000,,,,,-123.9999983E-6,-39.99999911E-3,
,,,-120.0000042E-6,1.0599999,,,,,-120.0000042E-6,1.3199999,,,,,-120.0000042E-6,39.99999911E-3,
,,,-116.0000029E-6,939.999997616E-3,,,,,-116.0000029E-6,1.0799999,,,,,-116.0000029E-6,219.99999881E-3,
,,,-112.0000015E-6,1.1600000,,,,,-112.0000015E-6,859.999954700E-3,,,,,-112.0000015E-6,-59.999998659E-3,
,,,-108.0000002E-6,1.1799999,,,,,-108.0000002E-6,1.0400000,,,,,-108.0000002E-6,-140.0000006E-3,
,,,-104.0000061E-6,1.1400000,,,,,-104.0000061E-6,1.3399999,,,,,-104.0000061E-6,19.9999996E-3,
,,,-100.0000047E-6,959.999978542E-3,,,,,-100.0000047E-6,1.2800000,,,,,-100.0000047E-6,140.0000006E-3,
,,,-96.000003396E-6,959.999978542E-3,,,,,-96.000003396E-6,1.0799999,,,,,-96.000003396E-6,219.99999881E-3,
,,,-92.000002041E-6,1.1400000,,,,,-92.000002041E-6,839.999973774E-3,,,,,-92.000002041E-6,-39.99999911E-3,
,,,-88.000000687E-6,1.1999999,,,,,-88.000000687E-6,1.1200000,,,,,-88.000000687E-6,-79.999998212E-3,
,,,-83.999999333E-6,1.0400000,,,,,-83.999999333E-6,1.2800000,,,,,-83.999999333E-6,19.9999996E-3,
,,,-80.000005255E-6,959.999978542E-3,,,,,-80.000005255E-6,1.2400000,,,,,-80.000005255E-6,179.99999225E-3,
,,,-76.000003901E-6,919.999957085E-3,,,,,-76.000003901E-6,1.000000,,,,,-76.000003901E-6,179.99999225E-3,
,,,-72.000002547E-6,1.2200000,,,,,-72.000002547E-6,979.999959469E-3,,,,,-72.000002547E-6,-119.9999973E-3,
,,,-68.000001193E-6,1.1799999,,,,,-68.000001193E-6,1.1600000,,,,,-68.000001193E-6,-140.0000006E-3,
,,,-63.999999838E-6,1.0599999,,,,,-63.999999838E-6,1.3399999,,,,,-63.999999838E-6,79.999998212E-3,
,,,-60.000002122E-6,939.999997616E-3,,,,,-60.000002122E-6,1.1400000,,,,,-60.000002122E-6,159.99999642E-3,
,,,-56.000004406E-6,1.000000,,,,,-56.000004406E-6,899.999976158E-3,,,,,-56.000004406E-6,-79.999998212E-3,
,,,-52.00000305E-6,1.2400000,,,,,-52.00000305E-6,1.1000000,,,,,-52.00000305E-6,-140.0000006E-3,
,,,-48.00000170E-6,1.1400000,,,,,-48.00000170E-6,1.3000000,,,,,-48.00000170E-6,-39.99999911E-3,
,,,-44.00000398E-6,1.0599999,,,,,-44.00000398E-6,1.3600000,,,,,-44.00000398E-6,79.999998212E-3,
,,,-40.00000263E-6,919.999957085E-3,,,,,-40.00000263E-6,1.0599999,,,,,-40.00000263E-6,179.99999225E-3,
,,,-36.00000127E-6,1.1799999,,,,,-36.00000127E-6,859.999954700E-3,,,,,-36.00000127E-6,-119.9999973E-3,
,,,-32.00000356E-6,1.1799999,,,,,-32.00000356E-6,1.0799999,,,,,-32.00000356E-6,-119.9999973E-3,
,,,-28.00000220E-6,1.1000000,,,,,-28.00000220E-6,1.3600000,,,,,-28.00000220E-6,19.9999996E-3,
,,,-24.00000267E-6,919.999957085E-3,,,,,-24.00000267E-6,1.2600000,,,,,-24.00000267E-6,159.99999642E-3,
,,,-20.0000031E-6,959.999978542E-3,,,,,-20.0000031E-6,1.0599999,,,,,-20.0000031E-6,259.99999046E-3,
,,,-16.0000018E-6,1.1400000,,,,,-16.0000018E-6,919.999957085E-3,,,,,-16.0000018E-6,-119.9999973E-3,
,,,-12.0000022E-6,1.1799999,,,,,-12.0000022E-6,1.1600000,,,,,-12.0000022E-6,-59.999998659E-3,
,,,-8.000002708E-6,1.0200000,,,,,-8.000002708E-6,1.2600000,,,,,-8.000002708E-6,39.99999911E-3,
,,,-4.00000272E-6,959.999978542E-3,,,,,-4.00000272E-6,1.1799999,,,,,-4.00000272E-6,179.99999225E-3,
,,,-2.72848409E-12,2.83999991,,,,,-2.72848409E-12,639.999985695E-3,,,,,-2.72848409E-12,3.57999992,
,,,3.99999726E-6,3.09999990,,,,,3.99999726E-6,719.999969006E-3,,,,,3.99999726E-6,3.09999990,
,,,7.999997251E-6,3.07999992,,,,,7.999997251E-6,939.999997616E-3,,,,,7.999997251E-6,3.15999985,
,,,11.9999968E-6,2.96000004,,,,,11.9999968E-6,1.0599999,,,,,11.9999968E-6,3.27999997,
,,,15.9999981E-6,2.89999986,,,,,15.9999981E-6,819.999992847E-3,,,,,15.9999981E-6,3.43999982,
,,,19.9999977E-6,3.07999992,,,,,19.9999977E-6,500.000000000E-3,,,,,19.9999977E-6,3.13999987,
,,,23.99999721E-6,1.0200000,,,,,23.99999721E-6,3.07999992,,,,,23.99999721E-6,3.11999989,
,,,27.99999675E-6,859.999954700E-3,,,,,27.99999675E-6,3.22000003,,,,,27.99999675E-6,3.24000001,
,,,31.99999628E-6,779.999971390E-3,,,,,31.99999628E-6,3.22000003,,,,,31.99999628E-6,3.43999982,
,,,35.99999764E-6,659.999966621E-3,,,,,35.99999764E-6,2.93999982,,,,,35.99999764E-6,3.48000002,
,,,39.99999899E-6,919.999957085E-3,,,,,39.99999899E-6,2.81999993,,,,,39.99999899E-6,3.13999987,
,,,43.99999671E-6,3.07999992,,,,,43.99999671E-6,799.999952316E-3,,,,,43.99999671E-6,3.13999987,
,,,47.99999806E-6,3.01999998,,,,,47.99999806E-6,1.1000000,,,,,47.99999806E-6,3.29999995,
,,,51.99999578E-6,2.85999990,,,,,51.99999578E-6,879.999995232E-3,,,,,51.99999578E-6,3.41999984,
,,,55.999997130E-6,2.91999984,,,,,55.999997130E-6,680.000007153E-3,,,,,55.999997130E-6,3.46000004,
,,,59.999998484E-6,3.11999989,,,,,59.999998484E-6,659.999966621E-3,,,,,59.999998484E-6,3.13999987,
,,,63.999999838E-6,3.15999985,,,,,63.999999838E-6,1.000000,,,,,63.999999838E-6,3.22000003,
,,,67.999993917E-6,3.01999998,,,,,67.999993917E-6,1.0400000,,,,,67.999993917E-6,3.33999991,
,,,71.999995271E-6,2.96000004,,,,,71.999995271E-6,839.999973774E-3,,,,,71.999995271E-6,3.50000000,
,,,75.999996625E-6,799.999952316E-3,,,,,75.999996625E-6,2.85999990,,,,,75.999996625E-6,3.15999985,
,,,79.999997979E-6,1.000000,,,,,79.999997979E-6,3.00000000,,,,,79.999997979E-6,3.13999987,
,,,83.999999333E-6,939.999997616E-3,,,,,83.999999333E-6,3.27999997,,,,,83.999999333E-6,3.24000001,
,,,88.000000687E-6,819.999992847E-3,,,,,88.000000687E-6,3.25999999,,,,,88.000000687E-6,3.37999988,
,,,91.999994766E-6,740.000009537E-3,,,,,91.999994766E-6,3.05999994,,,,,91.999994766E-6,3.46000004,
,,,95.999996120E-6,919.999957085E-3,,,,,95.999996120E-6,2.79999995,,,,,95.999996120E-6,3.13999987,
,,,99.999997474E-6,1.000000,,,,,99.999997474E-6,3.09999990,,,,,99.999997474E-6,3.13999987,
,,,103.9999988E-6,859.999954700E-3,,,,,103.9999988E-6,3.27999997,,,,,103.9999988E-6,3.27999997,
,,,108.0000002E-6,759.999990463E-3,,,,,108.0000002E-6,3.24000001,,,,,108.0000002E-6,3.48000002,
,,,111.9999943E-6,659.999966621E-3,,,,,111.9999943E-6,3.00000000,,,,,111.9999943E-6,3.43999982,
,,,115.9999956E-6,939.999997616E-3,,,,,115.9999956E-6,2.93999982,,,,,115.9999956E-6,3.24000001,
,,,119.9999970E-6,899.999976158E-3,,,,,119.9999970E-6,3.13999987,,,,,119.9999970E-6,3.15999985,
,,,123.9999983E-6,819.999992847E-3,,,,,123.9999983E-6,3.33999991,,,,,123.9999983E-6,3.35999990,
,,,127.9999997E-6,2.87999988,,,,,127.9999997E-6,859.999954700E-3,,,,,127.9999997E-6,3.46000004,
,,,132.0000010E-6,2.91999984,,,,,132.0000010E-6,699.999988079E-3,,,,,132.0000010E-6,3.43999982,
,,,136.0000024E-6,3.11999989,,,,,136.0000024E-6,779.999971390E-3,,,,,136.0000024E-6,3.09999990,
,,,140.0000037E-6,3.09999990,,,,,140.0000037E-6,1.0599999,,,,,140.0000037E-6,3.19999981,
,,,143.9999905E-6,2.96000004,,,,,143.9999905E-6,1.1000000,,,,,143.9999905E-6,3.39999986,
,,,147.9999919E-6,740.000009537E-3,,,,,147.9999919E-6,3.07999992,,,,,147.9999919E-6,3.48000002,
,,,151.99999325E-6,919.999957085E-3,,,,,151.99999325E-6,2.81999993,,,,,151.99999325E-6,3.09999990,
,,,155.99999460E-6,979.999959469E-3,,,,,155.99999460E-6,3.07999992,,,,,155.99999460E-6,3.13999987,
,,,159.99999596E-6,899.999976158E-3,,,,,159.99999596E-6,3.35999990,,,,,159.99999596E-6,3.27999997,
,,,163.99999731E-6,759.999990463E-3,,,,,163.99999731E-6,3.25999999,,,,,163.99999731E-6,3.41999984,
,,,167.99999867E-6,740.000009537E-3,,,,,167.99999867E-6,3.09999990,,,,,167.99999867E-6,3.43999982,
,,,172.00000002E-6,899.999976158E-3,,,,,172.00000002E-6,2.89999986,,,,,172.00000002E-6,3.13999987,
,,,176.00000137E-6,959.999978542E-3,,,,,176.00000137E-6,3.19999981,,,,,176.00000137E-6,3.19999981,
,,,180.00000273E-6,799.999952316E-3,,,,,180.00000273E-6,3.29999995,,,,,180.00000273E-6,3.31999993,
,,,184.00000408E-6,2.89999986,,,,,184.00000408E-6,1.0200000,,,,,184.00000408E-6,3.48000002,
,,,187.99999089E-6,2.87999988,,,,,187.99999089E-6,680.000007153E-3,,,,,187.99999089E-6,3.41999984,
,,,191.99999224E-6,3.11999989,,,,,191.99999224E-6,779.999971390E-3,,,,,191.99999224E-6,3.19999981,
,,,195.99999359E-6,3.05999994,,,,,195.99999359E-6,1.0200000,,,,,195.99999359E-6,3.19999981,
,,,199.99999495E-6,839.999973774E-3,,,,,199.99999495E-6,3.31999993,,,,,199.99999495E-6,3.41999984,
,,,203.99999630E-6,680.000007153E-3,,,,,203.99999630E-6,3.07999992,,,,,203.99999630E-6,3.46000004,
,,,207.99999766E-6,759.999990463E-3,,,,,207.99999766E-6,2.85999990,,,,,207.99999766E-6,3.19999981,
,,,211.99999901E-6,939.999997616E-3,,,,,211.99999901E-6,3.01999998,,,,,211.99999901E-6,3.09999990,
,,,216.00000036E-6,899.999976158E-3,,,,,216.00000036E-6,3.33999991,,,,,216.00000036E-6,3.27999997,
,,,220.00000172E-6,799.999952316E-3,,,,,220.00000172E-6,3.27999997,,,,,220.00000172E-6,3.37999988,
,,,224.00000307E-6,719.999969006E-3,,,,,224.00000307E-6,3.09999990,,,,,224.00000307E-6,3.50000000,
,,,227.99998987E-6,899.999976158E-3,,,,,227.99998987E-6,2.89999986,,,,,227.99998987E-6,3.09999990,
,,,231.99999123E-6,959.999978542E-3,,,,,231.99999123E-6,3.11999989,,,,,231.99999123E-6,3.15999985,
,,,235.99999258E-6,879.999995232E-3,,,,,235.99999258E-6,3.39999986,,,,,235.99999258E-6,3.31999993,
